{
  //"iisSettings": {
  //  "windowsAuthentication": false,
  //  "anonymousAuthentication": true,
  //  "iisExpress": {
  //    "applicationUrl": "http://localhost:5105",
  //    "sslPort": 44342
  //  }
  //},
  "$schema": "http://json.schemastore.org/launchsettings.json",
  "profiles": {
    //"IIS Express": {
    //  "commandName": "IISExpress",
    //  "launchBrowser": true,
    //  "environmentVariables": {
    //    "ASPNETCORE_ENVIRONMENT": "Development"
    //  }
    //},
    "IdentityServer.API": {
      "commandName": "Project",
      "launchBrowser": false,
      "launchUrl": "Home",
      "environmentVariables": {
        "ASPNETCORE_ENVIRONMENT": "Development"
      },
      "applicationUrl": "https://localhost:5001;http://localhost:5000"
    }
  }
}