{
  "ReRoutes": [
    {
      "UpstreamPathTemplate": "/identity/{url}",
      "UpstreamHttpMethod": [
        "Get",
        "set",
        "post",
        "put",
        "delete"
      ],

      "DownstreamPathTemplate": "/{url}",
      "DownstreamScheme": "https",
      "DownstreamHostAndPorts": [
        {
          "Host": "localhost",
          "Port": 5001
        }
      ]
    },
    {
      "UpstreamPathTemplate": "/api/agg/{url}",
      "UpstreamHttpMethod": [
        "Get",
        "set",
        "post",
        "put",
        "delete"
      ],

      "DownstreamPathTemplate": "/api/{url}",
      "DownstreamScheme": "https",
      "DownstreamHostAndPorts": [
        {
          "Host": "localhost",
          "Port": 3001
        }
      ]
    },
    {
      "UpstreamPathTemplate": "/api/product/{url}",
      "UpstreamHttpMethod": [
        "Get",
        "set",
        "post",
        "put",
        "delete"
      ],

      "DownstreamPathTemplate": "/api/product/{url}",
      "DownstreamScheme": "https",
      "DownstreamHostAndPorts": [
        {
          "Host": "localhost",
          "Port": 5201
        }
      ]
    },
    {
      "UpstreamPathTemplate": "/api/order/{url}",
      "UpstreamHttpMethod": [
        "Get",
        "set",
        "post",
        "put",
        "delete"
      ],

      "DownstreamPathTemplate": "/api/order/{url}",
      "DownstreamScheme": "https",
      "DownstreamHostAndPorts": [
        {
          "Host": "localhost",
          "Port": 5101
        }
      ]
    },
    {
      "UpstreamPathTemplate": "/api/warehouse/{url}",
      "UpstreamHttpMethod": [
        "Get",
        "set",
        "post",
        "put",
        "delete"
      ],

      "DownstreamPathTemplate": "/api/warehouse/{url}",
      "DownstreamScheme": "https",
      "DownstreamHostAndPorts": [
        {
          "Host": "localhost",
          "Port": 5301
        }
      ]
    }
  ],

  "GlobalConfiguration":  {
  }
}
